%!PS
% Patrons 100*100mm pour le balisage de sentiers PR
% Imprimer sur A4 echelle 100%
/gray {0.75 setgray} bind def
/dark {0 setgray} bind def
/strill {gsave dark stroke grestore gray fill} bind def
/onecm {3600 127 div} bind def
/A4W 21 def
/A4H 29.7 def

gsave
onecm dup scale % Unit is cm from now on
A4W 2 div A4H 2 div translate % Set origin to center of A4 paper
0.05 setlinewidth % Line width for stroke
gsave

% Now "split" page in two
A4W 2 div dup
newpath
neg 0 moveto
0 lineto
stroke
0 A4H 4 div translate % Upper part (turn)

%%%% Turn right
% top rectangle (Continue)
newpath
-5 4.75 moveto
10 0 rlineto
0 -2 rlineto
-10 0 rlineto
closepath
strill

% square that connect the arrow and its tail
newpath
-5 2.25 moveto
2 0 rlineto
0 -2 rlineto
-2 -0 rlineto
closepath
strill

% arrow
newpath
-2.5 2.25 moveto
5.5 0 rlineto
2 -1 rlineto
-2 -1 rlineto
-5.5 0 rlineto
closepath
strill

% arrow's tail
newpath
-5 -0.25 moveto
2 0 rlineto
0 -4.5 rlineto
-2 0 rlineto
closepath
strill
%%%%

grestore
gsave
0 A4H neg 4 div translate % Lower part (lock)
gsave

%%%% Lock
% y = -4/5x
/bar {
	newpath
	-5 3 moveto
	0 2 rlineto
	4.5 -3.6 rlineto
	-1.25 -1 rlineto
	closepath
	strill
} def
bar
newpath
0 1 moveto
1.25 -1 rlineto
-1.25 -1 rlineto
-1.25 1 rlineto
closepath
strill
1 -1 scale
bar
-1 1 scale
bar
1 -1 scale
bar

showpage
